29-Aug-2019 09:04:33.937 INFO [localhost-startStop-1] org.apache.catalina.core.ApplicationContext.log 1 Spring WebApplicationInitializers detected on classpath
29-Aug-2019 09:04:34.034 INFO [localhost-startStop-2] org.apache.catalina.core.ApplicationContext.log Using artifactory.home at '/home/n0118236/jfrog/artifactory-oss-6.12.1' resolved from: System property
29-Aug-2019 09:04:38.817 INFO [localhost-startStop-1] org.apache.catalina.core.ApplicationContext.log Initializing Spring embedded WebApplicationContext
29-Aug-2019 09:04:52.422 INFO [localhost-startStop-1] org.apache.catalina.core.ApplicationContext.log Closing Spring root WebApplicationContext
29-Aug-2019 09:07:13.416 INFO [localhost-startStop-2] org.apache.catalina.core.ApplicationContext.log Using artifactory.home at '/home/n0118236/jfrog/artifactory-oss-6.12.1' resolved from: System property
29-Aug-2019 09:07:13.890 INFO [localhost-startStop-1] org.apache.catalina.core.ApplicationContext.log 1 Spring WebApplicationInitializers detected on classpath
29-Aug-2019 09:07:21.433 INFO [localhost-startStop-1] org.apache.catalina.core.ApplicationContext.log Initializing Spring embedded WebApplicationContext
