<BuildResults>
  <myReasonForBuild>
    <myReason>Manual build</myReason>
  </myReasonForBuild>
  <myBuildState>
    <myState>Failed</myState>
  </myBuildState>
  <myBuildErrors class="com.atlassian.bamboo.collections.message.FinalArrayList"/>
  <myBuildNumber>1</myBuildNumber>
  <myBuildDate>1567092494321</myBuildDate>
  <myBuildDuration>3933</myBuildDuration>
  <mySuccessfulTestResults class="empty-list"/>
</BuildResults>