<BuildResults>
  <myReasonForBuild>
    <myReason>Manual build</myReason>
  </myReasonForBuild>
  <myBuildState>
    <myState>Successful</myState>
  </myBuildState>
  <myBuildErrors class="com.atlassian.bamboo.collections.message.FinalArrayList"/>
  <myBuildNumber>6</myBuildNumber>
  <myBuildDate>1567094989601</myBuildDate>
  <myBuildDuration>7297</myBuildDuration>
  <mySuccessfulTestResults class="empty-list"/>
</BuildResults>