<?xml version="1.0" encoding="UTF-8"?>
<svg width="16px" height="16px" viewBox="0 0 16 16" version="1.1" xmlns="http://www.w3.org/2000/svg" xmlns:xlink="http://www.w3.org/1999/xlink">
    <!-- Generator: Sketch 48.2 (47327) - http://www.bohemiancoding.com/sketch -->
    <title>bamboo/16px/incomplete-build-16px</title>
    <desc>Created with Sketch.</desc>
    <defs>
        <path d="M10.63275,5.367 C11.11775,5.852 11.11475,6.64 10.64075,7.114 L7.11375,10.641 C6.63375,11.121 5.85575,11.121 5.36675,10.633 C4.88275,10.148 4.88475,9.359 5.35975,8.886 L8.88575,5.359 C9.36575,4.879 10.14475,4.879 10.63275,5.367 M8,13.6 C4.9123,13.6 2.4,11.0877 2.4,8 C2.4,4.9123 4.9123,2.4 8,2.4 C11.0877,2.4 13.6,4.9123 13.6,8 C13.6,11.0877 11.0877,13.6 8,13.6 M8,1 C4.1339,1 1,4.1339 1,8 C1,11.8661 4.1339,15 8,15 C11.8661,15 15,11.8661 15,8 C15,4.1339 11.8661,1 8,1" id="path-1"></path>
    </defs>
    <g id="Symbols" stroke="none" stroke-width="1" fill="none" fill-rule="evenodd">
        <g id="bamboo/16px/incomplete-build">
            <mask id="mask-2" fill="white">
                <use xlink:href="#path-1"></use>
            </mask>
            <use id="incomplete-build" fill="#505f79" xlink:href="#path-1"></use>
        </g>
    </g>
</svg>