[20340][1569522109949][requester][info]["EventBus~initialize - Success"]
[20340][1569522109951][requester][info]["Messaging~boot - Success"]
[20340][1569522109970][requester][info]["bootCrashReporter~ Success"]
[20340][1569522109971][requester][info]["Telemetry~boot - Success"]
[20340][1569522109973][requester][info]["bootConfigurations~initialize - Success"]
[20340][1569522109976][requester][info]["Settings~boot - Success"]
[20340][1569522110042][requester][info]["bootstrapModels - Success"]
[20340][1569522110042][requester][info]["WLModels~boot - Success"]
[20340][1569522110149][requester][info]["Session~boot - Success"]
[20340][1569522110152][requester][info]["IndependentServices~boot - Success"]
[20340][1569522110169][requester][info]["AppModels~boot - Success"]
[20340][1569522110170][requester][info]["RuntimeListeners~boot- Success"]
[20340][1569522110170][requester][info]["DBWatcher~boot - Success"]
[20340][1569522110172][requester][info]["ThemeManager~boot - Success"]
[20340][1569522110174][requester][info]["InAppMessaging~boot - Success"]
[20340][1569522110175][requester][info]["Store~boot - Success"]
[20340][1569522110178][requester][info]["Shortcuts~boot - Success"]
[20340][1569522110178][requester][info]["SyncProxy~boot - Success"]
[20340][1569522110194][requester][info]["Requester~boot - Success"]
[20340][1569522110194][requester][info]["booted - requester"]
[20340][1569522110494][requester][warn]["Failed to subscribe to workspace for all APIs",{"name":"Error","message":"","stack":"Error\n    at SafeSubscriber.realtimeRequest$.pipe.subscribe.event [as _next] (file:///opt/Postman/app/resources/app/js/vendor-shared.js:398213:24)\n    at SafeSubscriber.__tryOrUnsub (file:///opt/Postman/app/resources/app/js/vendor-shared.js:41938:16)\n    at SafeSubscriber.next (file:///opt/Postman/app/resources/app/js/vendor-shared.js:41876:22)\n    at Subscriber._next (file:///opt/Postman/app/resources/app/js/vendor-shared.js:41819:26)\n    at Subscriber.next (file:///opt/Postman/app/resources/app/js/vendor-shared.js:41796:18)\n    at FilterSubscriber._next (file:///opt/Postman/app/resources/app/js/vendor-shared.js:144041:30)\n    at FilterSubscriber.Subscriber.next (file:///opt/Postman/app/resources/app/js/vendor-shared.js:41796:18)\n    at RefCountSubscriber.Subscriber._next (file:///opt/Postman/app/resources/app/js/vendor-shared.js:41819:26)\n    at RefCountSubscriber.Subscriber.next (file:///opt/Postman/app/resources/app/js/vendor-shared.js:41796:18)\n    at Subject.next (file:///opt/Postman/app/resources/app/js/vendor-shared.js:76724:25)\n    at ConnectableSubscriber.Subscriber._next (file:///opt/Postman/app/resources/app/js/vendor-shared.js:41819:26)\n    at ConnectableSubscriber.Subscriber.next (file:///opt/Postman/app/resources/app/js/vendor-shared.js:41796:18)\n    at EventEmitter.realtimeRequestBus.subscribe.event (file:///opt/Postman/app/resources/app/js/vendor-shared.js:398160:14)\n    at EventEmitter.emit (file:///opt/Postman/app/resources/app/js/vendor-shared.js:50074:5)\n    at _dispatch (file:///opt/Postman/app/resources/app/js/vendor-shared.js:142428:14)\n    at EventEmitter.<anonymous> (file:///opt/Postman/app/resources/app/js/vendor-shared.js:142438:9)\n    at EventEmitter.emit (events.js:182:13)"}]
[20340][1569522120318][requester][error]["Error in update flow: {\"code\":\"EACCES\",\"errno\":-13,\"message\":\"EACCES: permission denied, open '/opt/Postman/Postman-1569522120274.tar.gz'\",\"name\":\"Error\",\"path\":\"/opt/Postman/Postman-1569522120274.tar.gz\",\"stack\":\"Error: EACCES: permission denied, open '/opt/Postman/Postman-1569522120274.tar.gz'\",\"syscall\":\"open\"}"]
[20340][1569522322735][requester][warn]["Failed to subscribe to workspace for all APIs",{"name":"Error","message":"","stack":"Error\n    at SafeSubscriber.realtimeRequest$.pipe.subscribe.event [as _next] (file:///opt/Postman/app/resources/app/js/vendor-shared.js:398213:24)\n    at SafeSubscriber.__tryOrUnsub (file:///opt/Postman/app/resources/app/js/vendor-shared.js:41938:16)\n    at SafeSubscriber.next (file:///opt/Postman/app/resources/app/js/vendor-shared.js:41876:22)\n    at Subscriber._next (file:///opt/Postman/app/resources/app/js/vendor-shared.js:41819:26)\n    at Subscriber.next (file:///opt/Postman/app/resources/app/js/vendor-shared.js:41796:18)\n    at FilterSubscriber._next (file:///opt/Postman/app/resources/app/js/vendor-shared.js:144041:30)\n    at FilterSubscriber.Subscriber.next (file:///opt/Postman/app/resources/app/js/vendor-shared.js:41796:18)\n    at RefCountSubscriber.Subscriber._next (file:///opt/Postman/app/resources/app/js/vendor-shared.js:41819:26)\n    at RefCountSubscriber.Subscriber.next (file:///opt/Postman/app/resources/app/js/vendor-shared.js:41796:18)\n    at Subject.next (file:///opt/Postman/app/resources/app/js/vendor-shared.js:76724:25)\n    at ConnectableSubscriber.Subscriber._next (file:///opt/Postman/app/resources/app/js/vendor-shared.js:41819:26)\n    at ConnectableSubscriber.Subscriber.next (file:///opt/Postman/app/resources/app/js/vendor-shared.js:41796:18)\n    at EventEmitter.realtimeRequestBus.subscribe.event (file:///opt/Postman/app/resources/app/js/vendor-shared.js:398160:14)\n    at EventEmitter.emit (file:///opt/Postman/app/resources/app/js/vendor-shared.js:50074:5)\n    at _dispatch (file:///opt/Postman/app/resources/app/js/vendor-shared.js:142428:14)\n    at EventEmitter.<anonymous> (file:///opt/Postman/app/resources/app/js/vendor-shared.js:142438:9)\n    at EventEmitter.emit (events.js:182:13)"}]
[20340][1569522322754][requester][warn]["APIDevService~getAPIs: Failed to get APIs.",{"error":{"message":"SyncRequestService\\x7erequestListener: Could not fetch from sync. Socket not connected."}}]
[20340][1569522322757][requester][warn]["Failed to refresh API List",{"error":{"message":"SyncRequestService\\x7erequestListener: Could not fetch from sync. Socket not connected."}}]
[20340][1569522323711][requester][warn]["Failed to subscribe to workspace for all APIs",{"name":"Error","message":"[object Object]","stack":"Error: [object Object]\n    at SafeSubscriber.realtimeRequest$.pipe.subscribe.event [as _next] (file:///opt/Postman/app/resources/app/js/vendor-shared.js:398213:24)\n    at SafeSubscriber.__tryOrUnsub (file:///opt/Postman/app/resources/app/js/vendor-shared.js:41938:16)\n    at SafeSubscriber.next (file:///opt/Postman/app/resources/app/js/vendor-shared.js:41876:22)\n    at Subscriber._next (file:///opt/Postman/app/resources/app/js/vendor-shared.js:41819:26)\n    at Subscriber.next (file:///opt/Postman/app/resources/app/js/vendor-shared.js:41796:18)\n    at FilterSubscriber._next (file:///opt/Postman/app/resources/app/js/vendor-shared.js:144041:30)\n    at FilterSubscriber.Subscriber.next (file:///opt/Postman/app/resources/app/js/vendor-shared.js:41796:18)\n    at RefCountSubscriber.Subscriber._next (file:///opt/Postman/app/resources/app/js/vendor-shared.js:41819:26)\n    at RefCountSubscriber.Subscriber.next (file:///opt/Postman/app/resources/app/js/vendor-shared.js:41796:18)\n    at Subject.next (file:///opt/Postman/app/resources/app/js/vendor-shared.js:76724:25)\n    at ConnectableSubscriber.Subscriber._next (file:///opt/Postman/app/resources/app/js/vendor-shared.js:41819:26)\n    at ConnectableSubscriber.Subscriber.next (file:///opt/Postman/app/resources/app/js/vendor-shared.js:41796:18)\n    at EventEmitter.realtimeRequestBus.subscribe.event (file:///opt/Postman/app/resources/app/js/vendor-shared.js:398160:14)\n    at EventEmitter.emit (file:///opt/Postman/app/resources/app/js/vendor-shared.js:50074:5)\n    at _dispatch (file:///opt/Postman/app/resources/app/js/vendor-shared.js:142428:14)\n    at EventEmitter.<anonymous> (file:///opt/Postman/app/resources/app/js/vendor-shared.js:142438:9)\n    at EventEmitter.emit (events.js:182:13)"}]
[20340][1569522323742][requester][warn]["GraphQlSchemaContributor~fetchAllSchemaMetaInfo: Could not refresh schema list",{"error":{"message":"The version of the API you are using is not compatible with the configuration for your account","name":"incompatibleAPIVersionError"},"headers":{"Access-Control-Allow-Credentials":"","Access-Control-Allow-Headers":"","Access-Control-Allow-Methods":"","Access-Control-Allow-Origin":"","Access-Control-Expose-Headers":""},"status":400}]
[20340][1569522323767][requester][warn]["APIDevService~getAPIs: Failed to get APIs.",{"error":{"message":"The version of the API you are using is not compatible with the configuration for your account","name":"incompatibleAPIVersionError"},"headers":{"Access-Control-Allow-Credentials":"","Access-Control-Allow-Headers":"","Access-Control-Allow-Methods":"","Access-Control-Allow-Origin":"","Access-Control-Expose-Headers":""},"status":400}]
[20340][1569522323768][requester][warn]["Failed to refresh API List",{"error":{"message":"The version of the API you are using is not compatible with the configuration for your account","name":"incompatibleAPIVersionError"},"headers":{"Access-Control-Allow-Credentials":"","Access-Control-Allow-Headers":"","Access-Control-Allow-Methods":"","Access-Control-Allow-Origin":"","Access-Control-Expose-Headers":""},"status":400}]
[20340][1569522403240][requester][info]["EventBus~initialize - Success"]
[20340][1569522403243][requester][info]["Messaging~boot - Success"]
[20340][1569522403271][requester][info]["bootCrashReporter~ Success"]
[20340][1569522403273][requester][info]["Telemetry~boot - Success"]
[20340][1569522403274][requester][info]["bootConfigurations~initialize - Success"]
[20340][1569522403276][requester][info]["Settings~boot - Success"]
[20340][1569522403356][requester][info]["bootstrapModels - Success"]
[20340][1569522403356][requester][info]["WLModels~boot - Success"]
[20340][1569522403451][requester][info]["Session~boot - Success"]
[20340][1569522403454][requester][info]["IndependentServices~boot - Success"]
[20340][1569522403476][requester][info]["AppModels~boot - Success"]
[20340][1569522403476][requester][info]["RuntimeListeners~boot- Success"]
[20340][1569522403476][requester][info]["DBWatcher~boot - Success"]
[20340][1569522403479][requester][info]["ThemeManager~boot - Success"]
[20340][1569522403481][requester][info]["InAppMessaging~boot - Success"]
[20340][1569522403482][requester][info]["Store~boot - Success"]
[20340][1569522403485][requester][info]["Shortcuts~boot - Success"]
[20340][1569522403485][requester][info]["SyncProxy~boot - Success"]
[20340][1569522403500][requester][info]["Requester~boot - Success"]
[20340][1569522403501][requester][info]["booted - requester"]
[20340][1569522403840][requester][warn]["Failed to subscribe to workspace for all APIs",{"name":"Error","message":"","stack":"Error\n    at SafeSubscriber.realtimeRequest$.pipe.subscribe.event [as _next] (file:///opt/Postman/app/resources/app/js/vendor-shared.js:398213:24)\n    at SafeSubscriber.__tryOrUnsub (file:///opt/Postman/app/resources/app/js/vendor-shared.js:41938:16)\n    at SafeSubscriber.next (file:///opt/Postman/app/resources/app/js/vendor-shared.js:41876:22)\n    at Subscriber._next (file:///opt/Postman/app/resources/app/js/vendor-shared.js:41819:26)\n    at Subscriber.next (file:///opt/Postman/app/resources/app/js/vendor-shared.js:41796:18)\n    at FilterSubscriber._next (file:///opt/Postman/app/resources/app/js/vendor-shared.js:144041:30)\n    at FilterSubscriber.Subscriber.next (file:///opt/Postman/app/resources/app/js/vendor-shared.js:41796:18)\n    at RefCountSubscriber.Subscriber._next (file:///opt/Postman/app/resources/app/js/vendor-shared.js:41819:26)\n    at RefCountSubscriber.Subscriber.next (file:///opt/Postman/app/resources/app/js/vendor-shared.js:41796:18)\n    at Subject.next (file:///opt/Postman/app/resources/app/js/vendor-shared.js:76724:25)\n    at ConnectableSubscriber.Subscriber._next (file:///opt/Postman/app/resources/app/js/vendor-shared.js:41819:26)\n    at ConnectableSubscriber.Subscriber.next (file:///opt/Postman/app/resources/app/js/vendor-shared.js:41796:18)\n    at EventEmitter.realtimeRequestBus.subscribe.event (file:///opt/Postman/app/resources/app/js/vendor-shared.js:398160:14)\n    at EventEmitter.emit (file:///opt/Postman/app/resources/app/js/vendor-shared.js:50074:5)\n    at _dispatch (file:///opt/Postman/app/resources/app/js/vendor-shared.js:142428:14)\n    at EventEmitter.<anonymous> (file:///opt/Postman/app/resources/app/js/vendor-shared.js:142438:9)\n    at EventEmitter.emit (events.js:182:13)"}]
[20340][1569522413720][requester][error]["Error in update flow: {\"code\":\"EACCES\",\"errno\":-13,\"message\":\"EACCES: permission denied, open '/opt/Postman/Postman-1569522413668.tar.gz'\",\"name\":\"Error\",\"path\":\"/opt/Postman/Postman-1569522413668.tar.gz\",\"stack\":\"Error: EACCES: permission denied, open '/opt/Postman/Postman-1569522413668.tar.gz'\",\"syscall\":\"open\"}"]
[20340][1569522598734][requester][warn]["Failed to subscribe to workspace for all APIs",{"name":"Error","message":"","stack":"Error\n    at SafeSubscriber.realtimeRequest$.pipe.subscribe.event [as _next] (file:///opt/Postman/app/resources/app/js/vendor-shared.js:398213:24)\n    at SafeSubscriber.__tryOrUnsub (file:///opt/Postman/app/resources/app/js/vendor-shared.js:41938:16)\n    at SafeSubscriber.next (file:///opt/Postman/app/resources/app/js/vendor-shared.js:41876:22)\n    at Subscriber._next (file:///opt/Postman/app/resources/app/js/vendor-shared.js:41819:26)\n    at Subscriber.next (file:///opt/Postman/app/resources/app/js/vendor-shared.js:41796:18)\n    at FilterSubscriber._next (file:///opt/Postman/app/resources/app/js/vendor-shared.js:144041:30)\n    at FilterSubscriber.Subscriber.next (file:///opt/Postman/app/resources/app/js/vendor-shared.js:41796:18)\n    at RefCountSubscriber.Subscriber._next (file:///opt/Postman/app/resources/app/js/vendor-shared.js:41819:26)\n    at RefCountSubscriber.Subscriber.next (file:///opt/Postman/app/resources/app/js/vendor-shared.js:41796:18)\n    at Subject.next (file:///opt/Postman/app/resources/app/js/vendor-shared.js:76724:25)\n    at ConnectableSubscriber.Subscriber._next (file:///opt/Postman/app/resources/app/js/vendor-shared.js:41819:26)\n    at ConnectableSubscriber.Subscriber.next (file:///opt/Postman/app/resources/app/js/vendor-shared.js:41796:18)\n    at EventEmitter.realtimeRequestBus.subscribe.event (file:///opt/Postman/app/resources/app/js/vendor-shared.js:398160:14)\n    at EventEmitter.emit (file:///opt/Postman/app/resources/app/js/vendor-shared.js:50074:5)\n    at _dispatch (file:///opt/Postman/app/resources/app/js/vendor-shared.js:142428:14)\n    at EventEmitter.<anonymous> (file:///opt/Postman/app/resources/app/js/vendor-shared.js:142438:9)\n    at EventEmitter.emit (events.js:182:13)"}]
[20340][1569522598755][requester][warn]["APIDevService~getAPIs: Failed to get APIs.",{"error":{"message":"SyncRequestService\\x7erequestListener: Could not fetch from sync. Socket not connected."}}]
[20340][1569522598757][requester][warn]["Failed to refresh API List",{"error":{"message":"SyncRequestService\\x7erequestListener: Could not fetch from sync. Socket not connected."}}]
[21931][1569524236870][requester][info]["EventBus~initialize - Success"]
[21931][1569524236875][requester][info]["Messaging~boot - Success"]
[21931][1569524236895][requester][info]["bootCrashReporter~ Success"]
[21931][1569524236896][requester][info]["Telemetry~boot - Success"]
[21931][1569524236898][requester][info]["bootConfigurations~initialize - Success"]
[21931][1569524236901][requester][info]["Settings~boot - Success"]
[21931][1569524236979][requester][info]["bootstrapModels - Success"]
[21931][1569524236979][requester][info]["WLModels~boot - Success"]
[21931][1569524237049][requester][info]["Session~boot - Success"]
[21931][1569524237053][requester][info]["IndependentServices~boot - Success"]
[21931][1569524237074][requester][info]["AppModels~boot - Success"]
[21931][1569524237074][requester][info]["RuntimeListeners~boot- Success"]
[21931][1569524237074][requester][info]["DBWatcher~boot - Success"]
[21931][1569524237077][requester][info]["ThemeManager~boot - Success"]
[21931][1569524237079][requester][info]["InAppMessaging~boot - Success"]
[21931][1569524237080][requester][info]["Store~boot - Success"]
[21931][1569524237083][requester][info]["Shortcuts~boot - Success"]
[21931][1569524237085][requester][info]["SyncProxy~boot - Success"]
[21931][1569524237107][requester][info]["Requester~boot - Success"]
[21931][1569524237107][requester][info]["booted - requester"]
[21931][1569524247811][requester][error]["Error in update flow: {\"code\":\"EACCES\",\"errno\":-13,\"message\":\"EACCES: permission denied, open '/opt/Postman/Postman-1569524247734.tar.gz'\",\"name\":\"Error\",\"path\":\"/opt/Postman/Postman-1569524247734.tar.gz\",\"stack\":\"Error: EACCES: permission denied, open '/opt/Postman/Postman-1569524247734.tar.gz'\",\"syscall\":\"open\"}"]
[16594][1569854243477][requester][info]["EventBus~initialize - Success"]
[16594][1569854243481][requester][info]["Messaging~boot - Success"]
[16594][1569854243504][requester][info]["bootCrashReporter~ Success"]
[16594][1569854243505][requester][info]["Telemetry~boot - Success"]
[16594][1569854243507][requester][info]["bootConfigurations~initialize - Success"]
[16594][1569854243509][requester][info]["Settings~boot - Success"]
[16594][1569854243569][requester][info]["bootstrapModels - Success"]
[16594][1569854243569][requester][info]["WLModels~boot - Success"]
[16594][1569854243649][requester][info]["Session~boot - Success"]
[16594][1569854243652][requester][info]["IndependentServices~boot - Success"]
[16594][1569854243667][requester][info]["AppModels~boot - Success"]
[16594][1569854243667][requester][info]["RuntimeListeners~boot- Success"]
[16594][1569854243668][requester][info]["DBWatcher~boot - Success"]
[16594][1569854243671][requester][info]["ThemeManager~boot - Success"]
[16594][1569854243672][requester][info]["InAppMessaging~boot - Success"]
[16594][1569854243672][requester][info]["Store~boot - Success"]
[16594][1569854243677][requester][info]["Shortcuts~boot - Success"]
[16594][1569854243678][requester][info]["SyncProxy~boot - Success"]
[16594][1569854243698][requester][info]["Requester~boot - Success"]
[16594][1569854243699][requester][info]["booted - requester"]
[16594][1569854253906][requester][error]["Error in update flow: {\"code\":\"EACCES\",\"errno\":-13,\"message\":\"EACCES: permission denied, open '/opt/Postman/Postman-1569854253818.tar.gz'\",\"name\":\"Error\",\"path\":\"/opt/Postman/Postman-1569854253818.tar.gz\",\"stack\":\"Error: EACCES: permission denied, open '/opt/Postman/Postman-1569854253818.tar.gz'\",\"syscall\":\"open\"}"]
[16877][1569854970766][requester][info]["EventBus~initialize - Success"]
[16877][1569854970769][requester][info]["Messaging~boot - Success"]
[16877][1569854970789][requester][info]["bootCrashReporter~ Success"]
[16877][1569854970790][requester][info]["Telemetry~boot - Success"]
[16877][1569854970792][requester][info]["bootConfigurations~initialize - Success"]
[16877][1569854970795][requester][info]["Settings~boot - Success"]
[16877][1569854970857][requester][info]["bootstrapModels - Success"]
[16877][1569854970858][requester][info]["WLModels~boot - Success"]
[16877][1569854970934][requester][info]["Session~boot - Success"]
[16877][1569854970938][requester][info]["IndependentServices~boot - Success"]
[16877][1569854970961][requester][info]["AppModels~boot - Success"]
[16877][1569854970961][requester][info]["RuntimeListeners~boot- Success"]
[16877][1569854970961][requester][info]["DBWatcher~boot - Success"]
[16877][1569854970965][requester][info]["ThemeManager~boot - Success"]
[16877][1569854970966][requester][info]["InAppMessaging~boot - Success"]
[16877][1569854970967][requester][info]["Store~boot - Success"]
[16877][1569854970971][requester][info]["Shortcuts~boot - Success"]
[16877][1569854970971][requester][info]["SyncProxy~boot - Success"]
[16877][1569854970985][requester][info]["Requester~boot - Success"]
[16877][1569854970986][requester][info]["booted - requester"]
[16877][1569854981205][requester][error]["Error in update flow: {\"code\":\"EACCES\",\"errno\":-13,\"message\":\"EACCES: permission denied, open '/opt/Postman/Postman-1569854981115.tar.gz'\",\"name\":\"Error\",\"path\":\"/opt/Postman/Postman-1569854981115.tar.gz\",\"stack\":\"Error: EACCES: permission denied, open '/opt/Postman/Postman-1569854981115.tar.gz'\",\"syscall\":\"open\"}"]
[17254][1569947015794][requester][info]["EventBus~initialize - Success"]
[17254][1569947015798][requester][info]["Messaging~boot - Success"]
[17254][1569947015818][requester][info]["bootCrashReporter~ Success"]
[17254][1569947015819][requester][info]["Telemetry~boot - Success"]
[17254][1569947015821][requester][info]["bootConfigurations~initialize - Success"]
[17254][1569947015823][requester][info]["Settings~boot - Success"]
[17254][1569947015891][requester][info]["bootstrapModels - Success"]
[17254][1569947015891][requester][info]["WLModels~boot - Success"]
[17254][1569947015935][requester][info]["Session~boot - Success"]
[17254][1569947015940][requester][info]["IndependentServices~boot - Success"]
[17254][1569947015957][requester][info]["AppModels~boot - Success"]
[17254][1569947015958][requester][info]["RuntimeListeners~boot- Success"]
[17254][1569947015958][requester][info]["DBWatcher~boot - Success"]
[17254][1569947015961][requester][info]["ThemeManager~boot - Success"]
[17254][1569947015963][requester][info]["InAppMessaging~boot - Success"]
[17254][1569947015964][requester][info]["Store~boot - Success"]
[17254][1569947015967][requester][info]["Shortcuts~boot - Success"]
[17254][1569947015969][requester][info]["SyncProxy~boot - Success"]
[17254][1569947015999][requester][info]["Requester~boot - Success"]
[17254][1569947016000][requester][info]["booted - requester"]
[17254][1569947016240][requester][error]["APIDevService~getAllAPIRealtimeEvents: workspaceId not found"]
[17254][1569947026142][requester][error]["Error in update flow: {\"code\":\"EACCES\",\"errno\":-13,\"message\":\"EACCES: permission denied, open '/opt/Postman/Postman-1569947026084.tar.gz'\",\"name\":\"Error\",\"path\":\"/opt/Postman/Postman-1569947026084.tar.gz\",\"stack\":\"Error: EACCES: permission denied, open '/opt/Postman/Postman-1569947026084.tar.gz'\",\"syscall\":\"open\"}"]
[18386][1569950732056][requester][info]["EventBus~initialize - Success"]
[18386][1569950732058][requester][info]["Messaging~boot - Success"]
[18386][1569950732076][requester][info]["bootCrashReporter~ Success"]
[18386][1569950732078][requester][info]["Telemetry~boot - Success"]
[18386][1569950732079][requester][info]["bootConfigurations~initialize - Success"]
[18386][1569950732081][requester][info]["Settings~boot - Success"]
[18386][1569950732140][requester][info]["bootstrapModels - Success"]
[18386][1569950732140][requester][info]["WLModels~boot - Success"]
[18386][1569950732205][requester][info]["Session~boot - Success"]
[18386][1569950732216][requester][info]["IndependentServices~boot - Success"]
[18386][1569950732230][requester][info]["AppModels~boot - Success"]
[18386][1569950732231][requester][info]["RuntimeListeners~boot- Success"]
[18386][1569950732231][requester][info]["DBWatcher~boot - Success"]
[18386][1569950732234][requester][info]["ThemeManager~boot - Success"]
[18386][1569950732235][requester][info]["InAppMessaging~boot - Success"]
[18386][1569950732235][requester][info]["Store~boot - Success"]
[18386][1569950732239][requester][info]["Shortcuts~boot - Success"]
[18386][1569950732239][requester][info]["SyncProxy~boot - Success"]
[18386][1569950732256][requester][info]["Requester~boot - Success"]
[18386][1569950732256][requester][info]["booted - requester"]
[18386][1569950732470][requester][error]["APIDevService~getAllAPIRealtimeEvents: workspaceId not found"]
[18386][1569950742413][requester][error]["Error in update flow: {\"code\":\"EACCES\",\"errno\":-13,\"message\":\"EACCES: permission denied, open '/opt/Postman/Postman-1569950742351.tar.gz'\",\"name\":\"Error\",\"path\":\"/opt/Postman/Postman-1569950742351.tar.gz\",\"stack\":\"Error: EACCES: permission denied, open '/opt/Postman/Postman-1569950742351.tar.gz'\",\"syscall\":\"open\"}"]
[19040][1569951904820][requester][info]["EventBus~initialize - Success"]
[19040][1569951904824][requester][info]["Messaging~boot - Success"]
[19040][1569951904841][requester][info]["bootCrashReporter~ Success"]
[19040][1569951904843][requester][info]["Telemetry~boot - Success"]
[19040][1569951904845][requester][info]["bootConfigurations~initialize - Success"]
[19040][1569951904848][requester][info]["Settings~boot - Success"]
[19040][1569951904913][requester][info]["bootstrapModels - Success"]
[19040][1569951904913][requester][info]["WLModels~boot - Success"]
[19040][1569951904988][requester][info]["Session~boot - Success"]
[19040][1569951904994][requester][info]["IndependentServices~boot - Success"]
[19040][1569951905014][requester][info]["AppModels~boot - Success"]
[19040][1569951905015][requester][info]["RuntimeListeners~boot- Success"]
[19040][1569951905015][requester][info]["DBWatcher~boot - Success"]
[19040][1569951905018][requester][info]["ThemeManager~boot - Success"]
[19040][1569951905020][requester][info]["InAppMessaging~boot - Success"]
[19040][1569951905020][requester][info]["Store~boot - Success"]
[19040][1569951905024][requester][info]["Shortcuts~boot - Success"]
[19040][1569951905025][requester][info]["SyncProxy~boot - Success"]
[19040][1569951905043][requester][info]["Requester~boot - Success"]
[19040][1569951905043][requester][info]["booted - requester"]
[19040][1569951905259][requester][error]["APIDevService~getAllAPIRealtimeEvents: workspaceId not found"]
[19040][1569951915186][requester][error]["Error in update flow: {\"code\":\"EACCES\",\"errno\":-13,\"message\":\"EACCES: permission denied, open '/opt/Postman/Postman-1569951915119.tar.gz'\",\"name\":\"Error\",\"path\":\"/opt/Postman/Postman-1569951915119.tar.gz\",\"stack\":\"Error: EACCES: permission denied, open '/opt/Postman/Postman-1569951915119.tar.gz'\",\"syscall\":\"open\"}"]
[20899][1569956468493][requester][info]["EventBus~initialize - Success"]
[20899][1569956468496][requester][info]["Messaging~boot - Success"]
[20899][1569956468517][requester][info]["bootCrashReporter~ Success"]
[20899][1569956468519][requester][info]["Telemetry~boot - Success"]
[20899][1569956468520][requester][info]["bootConfigurations~initialize - Success"]
[20899][1569956468522][requester][info]["Settings~boot - Success"]
[20899][1569956468591][requester][info]["bootstrapModels - Success"]
[20899][1569956468592][requester][info]["WLModels~boot - Success"]
[20899][1569956468692][requester][info]["Session~boot - Success"]
[20899][1569956468696][requester][info]["IndependentServices~boot - Success"]
[20899][1569956468715][requester][info]["AppModels~boot - Success"]
[20899][1569956468716][requester][info]["RuntimeListeners~boot- Success"]
[20899][1569956468716][requester][info]["DBWatcher~boot - Success"]
[20899][1569956468719][requester][info]["ThemeManager~boot - Success"]
[20899][1569956468720][requester][info]["InAppMessaging~boot - Success"]
[20899][1569956468721][requester][info]["Store~boot - Success"]
[20899][1569956468723][requester][info]["Shortcuts~boot - Success"]
[20899][1569956468724][requester][info]["SyncProxy~boot - Success"]
[20899][1569956468737][requester][info]["Requester~boot - Success"]
[20899][1569956468737][requester][info]["booted - requester"]
[20899][1569956468949][requester][error]["APIDevService~getAllAPIRealtimeEvents: workspaceId not found"]
[20899][1569956478918][requester][error]["Error in update flow: {\"code\":\"EACCES\",\"errno\":-13,\"message\":\"EACCES: permission denied, open '/opt/Postman/Postman-1569956478841.tar.gz'\",\"name\":\"Error\",\"path\":\"/opt/Postman/Postman-1569956478841.tar.gz\",\"stack\":\"Error: EACCES: permission denied, open '/opt/Postman/Postman-1569956478841.tar.gz'\",\"syscall\":\"open\"}"]
[13272][1570145424199][requester][info]["EventBus~initialize - Success"]
[13272][1570145424201][requester][info]["Messaging~boot - Success"]
[13272][1570145424226][requester][info]["bootCrashReporter~ Success"]
[13272][1570145424228][requester][info]["Telemetry~boot - Success"]
[13272][1570145424229][requester][info]["bootConfigurations~initialize - Success"]
[13272][1570145424231][requester][info]["Settings~boot - Success"]
[13272][1570145424291][requester][info]["bootstrapModels - Success"]
[13272][1570145424292][requester][info]["WLModels~boot - Success"]
[13272][1570145424342][requester][info]["Session~boot - Success"]
[13272][1570145424345][requester][info]["IndependentServices~boot - Success"]
[13272][1570145424360][requester][info]["AppModels~boot - Success"]
[13272][1570145424360][requester][info]["RuntimeListeners~boot- Success"]
[13272][1570145424361][requester][info]["DBWatcher~boot - Success"]
[13272][1570145424363][requester][info]["ThemeManager~boot - Success"]
[13272][1570145424365][requester][info]["InAppMessaging~boot - Success"]
[13272][1570145424366][requester][info]["Store~boot - Success"]
[13272][1570145424370][requester][info]["Shortcuts~boot - Success"]
[13272][1570145424370][requester][info]["SyncProxy~boot - Success"]
[13272][1570145424388][requester][info]["Requester~boot - Success"]
[13272][1570145424388][requester][info]["booted - requester"]
[13272][1570145434552][requester][error]["Error in update flow: {\"code\":\"EACCES\",\"errno\":-13,\"message\":\"EACCES: permission denied, open '/opt/Postman/Postman-1570145434505.tar.gz'\",\"name\":\"Error\",\"path\":\"/opt/Postman/Postman-1570145434505.tar.gz\",\"stack\":\"Error: EACCES: permission denied, open '/opt/Postman/Postman-1570145434505.tar.gz'\",\"syscall\":\"open\"}"]
[14024][1570145906758][requester][info]["EventBus~initialize - Success"]
[14024][1570145906762][requester][info]["Messaging~boot - Success"]
[14024][1570145906780][requester][info]["bootCrashReporter~ Success"]
[14024][1570145906782][requester][info]["Telemetry~boot - Success"]
[14024][1570145906783][requester][info]["bootConfigurations~initialize - Success"]
[14024][1570145906785][requester][info]["Settings~boot - Success"]
[14024][1570145906848][requester][info]["bootstrapModels - Success"]
[14024][1570145906848][requester][info]["WLModels~boot - Success"]
[14024][1570145906891][requester][info]["Session~boot - Success"]
[14024][1570145906895][requester][info]["IndependentServices~boot - Success"]
[14024][1570145906911][requester][info]["AppModels~boot - Success"]
[14024][1570145906912][requester][info]["RuntimeListeners~boot- Success"]
[14024][1570145906912][requester][info]["DBWatcher~boot - Success"]
[14024][1570145906915][requester][info]["ThemeManager~boot - Success"]
[14024][1570145906915][requester][info]["InAppMessaging~boot - Success"]
[14024][1570145906917][requester][info]["Store~boot - Success"]
[14024][1570145906920][requester][info]["Shortcuts~boot - Success"]
[14024][1570145906921][requester][info]["SyncProxy~boot - Success"]
[14024][1570145906944][requester][info]["Requester~boot - Success"]
[14024][1570145906945][requester][info]["booted - requester"]
[14024][1570145917157][requester][error]["Error in update flow: {\"code\":\"EACCES\",\"errno\":-13,\"message\":\"EACCES: permission denied, open '/opt/Postman/Postman-1570145917029.tar.gz'\",\"name\":\"Error\",\"path\":\"/opt/Postman/Postman-1570145917029.tar.gz\",\"stack\":\"Error: EACCES: permission denied, open '/opt/Postman/Postman-1570145917029.tar.gz'\",\"syscall\":\"open\"}"]
