{
  "shell_port": 33989,
  "iopub_port": 52853,
  "stdin_port": 54259,
  "control_port": 56433,
  "hb_port": 47307,
  "ip": "127.0.0.1",
  "key": "60288ee2-0d550013aa688f469b7b1f4c",
  "transport": "tcp",
  "signature_scheme": "hmac-sha256",
  "kernel_name": ""
}