{
  "shell_port": 54559,
  "iopub_port": 56751,
  "stdin_port": 42201,
  "control_port": 55365,
  "hb_port": 34547,
  "ip": "127.0.0.1",
  "key": "faba262d-2e0970b13cb00d51f6515626",
  "transport": "tcp",
  "signature_scheme": "hmac-sha256",
  "kernel_name": ""
}