{
  "shell_port": 43071,
  "iopub_port": 36587,
  "stdin_port": 33291,
  "control_port": 43643,
  "hb_port": 40037,
  "ip": "127.0.0.1",
  "key": "b7552f63-8440d8d8ec603a1b043e0a22",
  "transport": "tcp",
  "signature_scheme": "hmac-sha256",
  "kernel_name": ""
}