{
  "base_url": "/",
  "hostname": "localhost",
  "notebook_dir": "/home/n0118236/my-notes/intro-to-devops/intro-to-devops/jupyter-notebooks",
  "password": false,
  "pid": 16756,
  "port": 8888,
  "secure": false,
  "token": "7fe90b6afd6a7c7a91fdabc1e50d1ac99b004ac2d4d70161",
  "url": "http://localhost:8888/"
}