{
  "base_url": "/",
  "hostname": "localhost",
  "notebook_dir": "/home/n0118236/java",
  "password": false,
  "pid": 24483,
  "port": 8889,
  "secure": false,
  "token": "17f29fab06c8357fd56389d2d57bfad739108e5b42032b27",
  "url": "http://localhost:8889/"
}