{
  "base_url": "/",
  "hostname": "localhost",
  "notebook_dir": "/home/n0118236/my-notes/intro-to-devops/intro-to-devops",
  "password": false,
  "pid": 20820,
  "port": 8889,
  "secure": false,
  "token": "bb5a0684fdfe69a6547109b995e4b1252df4534e3d0bde89",
  "url": "http://localhost:8889/"
}