<BuildResults>
  <myReasonForBuild>
    <myReason>Manual build</myReason>
  </myReasonForBuild>
  <myBuildState>
    <myState>Failed</myState>
  </myBuildState>
  <myBuildErrors class="com.atlassian.bamboo.collections.message.FinalArrayList"/>
  <myBuildNumber>3</myBuildNumber>
  <myBuildDate>1566911937427</myBuildDate>
  <myBuildDuration>3452</myBuildDuration>
  <mySuccessfulTestResults class="empty-list"/>
</BuildResults>