<BuildResults>
  <myReasonForBuild>
    <myReason>Manual build</myReason>
  </myReasonForBuild>
  <myBuildState>
    <myState>Failed</myState>
  </myBuildState>
  <myBuildErrors class="com.atlassian.bamboo.collections.message.FinalArrayList"/>
  <myBuildNumber>14</myBuildNumber>
  <myBuildDate>1567005368044</myBuildDate>
  <myBuildDuration>352</myBuildDuration>
  <mySuccessfulTestResults class="empty-list"/>
</BuildResults>