{
  "app.html": "app.2429.html",
  "artifactory_core.js": "artifactory_core.2429.js",
  "artifactory_core.js.map": "artifactory_core.js.2429.map",
  "artifactory_dao.js": "artifactory_dao.2429.js",
  "artifactory_dao.js.map": "artifactory_dao.js.2429.map",
  "artifactory_directives.js": "artifactory_directives.2429.js",
  "artifactory_directives.js.map": "artifactory_directives.js.2429.map",
  "artifactory_filters.js": "artifactory_filters.2429.js",
  "artifactory_filters.js.map": "artifactory_filters.js.2429.map",
  "artifactory_main.js": "artifactory_main.2429.js",
  "artifactory_main.js.map": "artifactory_main.js.2429.map",
  "artifactory_services.js": "artifactory_services.2429.js",
  "artifactory_services.js.map": "artifactory_services.js.2429.map",
  "artifactory_states.js": "artifactory_states.2429.js",
  "artifactory_states.js.map": "artifactory_states.js.2429.map",
  "artifactory_ui.js": "artifactory_ui.2429.js",
  "artifactory_ui.js.map": "artifactory_ui.js.2429.map",
  "artifactory_ui_components.js": "artifactory_ui_components.2429.js",
  "artifactory_ui_components.js.map": "artifactory_ui_components.js.2429.map",
  "artifactory_views.js": "artifactory_views.2429.js",
  "artifactory_views.js.map": "artifactory_views.js.2429.map",
  "jfrog-ui-essentials.webworker.js": "jfrog-ui-essentials.webworker.2429.js",
  "templates.js": "templates.2429.js",
  "vendorScripts.js": "vendorScripts.2429.js",
  "css/ZeroClipboard.swf": "css/ZeroClipboard.2429.swf",
  "css/application.css": "css/application.2429.css",
  "css/vendorStyles.css": "css/vendorStyles.2429.css",
  "dependencies/asciidoctor.js": "dependencies/asciidoctor.2429.js",
  "dependencies/kramed.min.js": "dependencies/kramed.min.2429.js",
  "fonts/fontawesome-webfont.eot": "fonts/fontawesome-webfont.2429.eot",
  "fonts/fontawesome-webfont.svg": "fonts/fontawesome-webfont.2429.svg",
  "fonts/fontawesome-webfont.ttf": "fonts/fontawesome-webfont.2429.ttf",
  "fonts/fontawesome-webfont.woff": "fonts/fontawesome-webfont.2429.woff",
  "fonts/glyphicons-halflings-regular.eot": "fonts/glyphicons-halflings-regular.2429.eot",
  "fonts/glyphicons-halflings-regular.svg": "fonts/glyphicons-halflings-regular.2429.svg",
  "fonts/glyphicons-halflings-regular.ttf": "fonts/glyphicons-halflings-regular.2429.ttf",
  "fonts/glyphicons-halflings-regular.woff": "fonts/glyphicons-halflings-regular.2429.woff",
  "fonts/glyphicons-halflings-regular.woff2": "fonts/glyphicons-halflings-regular.2429.woff2",
  "fonts/ui-grid.eot": "fonts/ui-grid.2429.eot",
  "fonts/ui-grid.svg": "fonts/ui-grid.2429.svg",
  "fonts/ui-grid.ttf": "fonts/ui-grid.2429.ttf",
  "fonts/ui-grid.woff": "fonts/ui-grid.2429.woff",
  "images/32px.png": "images/32px.2429.png",
  "images/32px_trash.png": "images/32px_trash.2429.png",
  "images/403_image.svg": "images/403_image.2429.svg",
  "images/404_image.svg": "images/404_image.2429.svg",
  "images/40px.png": "images/40px.2429.png",
  "images/5XX.svg": "images/5XX.2429.svg",
  "images/actions.png": "images/actions.2429.png",
  "images/admin.png": "images/admin.2429.png",
  "images/arrow_left.png": "images/arrow_left.2429.png",
  "images/arrow_right.png": "images/arrow_right.2429.png",
  "images/artifactory_conan_ce.svg": "images/artifactory_conan_ce.2429.svg",
  "images/artifactory_edge.svg": "images/artifactory_edge.2429.svg",
  "images/artifactory_logo.png": "images/artifactory_logo.2429.png",
  "images/artifactory_logo.svg": "images/artifactory_logo.2429.svg",
  "images/blogs.svg": "images/blogs.2429.svg",
  "images/build.png": "images/build.2429.png",
  "images/checkbox.png": "images/checkbox.2429.png",
  "images/checkbox_checked.png": "images/checkbox_checked.2429.png",
  "images/conan_ce_logo.svg": "images/conan_ce_logo.2429.svg",
  "images/dashboard_links.svg": "images/dashboard_links.2429.svg",
  "images/delete-recursive.png": "images/delete-recursive.2429.png",
  "images/delete.png": "images/delete.2429.png",
  "images/deploy.png": "images/deploy.2429.png",
  "images/download.png": "images/download.2429.png",
  "images/downloaded.png": "images/downloaded.2429.png",
  "images/eplus-bundles-na.png": "images/eplus-bundles-na.2429.png",
  "images/favicon-old.ico": "images/favicon-old.2429.ico",
  "images/favicon.ico": "images/favicon.2429.ico",
  "images/file.png": "images/file.2429.png",
  "images/folder-closed.png": "images/folder-closed.2429.png",
  "images/folder.png": "images/folder.2429.png",
  "images/footer-icon.png": "images/footer-icon.2429.png",
  "images/grid-row-not-selected-hover.png": "images/grid-row-not-selected-hover.2429.png",
  "images/grid-row-not-selected.png": "images/grid-row-not-selected.2429.png",
  "images/grid-row-selected.png": "images/grid-row-selected.2429.png",
  "images/grid_checkbox.png": "images/grid_checkbox.2429.png",
  "images/home.png": "images/home.2429.png",
  "images/jfrog_general.svg": "images/jfrog_general.2429.svg",
  "images/more-tabs-arrow.png": "images/more-tabs-arrow.2429.png",
  "images/node-closed-2.png": "images/node-closed-2.2429.png",
  "images/node-closed-light.png": "images/node-closed-light.2429.png",
  "images/node-closed.png": "images/node-closed.2429.png",
  "images/node-opened-2.png": "images/node-opened-2.2429.png",
  "images/node-opened-light.png": "images/node-opened-light.2429.png",
  "images/node-opened.png": "images/node-opened.2429.png",
  "images/radio.png": "images/radio.2429.png",
  "images/radio_checked.png": "images/radio_checked.2429.png",
  "images/radio_hover.png": "images/radio_hover.2429.png",
  "images/rest_api.svg": "images/rest_api.2429.svg",
  "images/sample.png": "images/sample.2429.png",
  "images/screencapture-sumologic.jpg": "images/screencapture-sumologic.2429.jpg",
  "images/search.png": "images/search.2429.png",
  "images/set-me-up.png": "images/set-me-up.2429.png",
  "images/stackoverflow.svg": "images/stackoverflow.2429.svg",
  "images/support.svg": "images/support.2429.svg",
  "images/throbber.gif": "images/throbber.2429.gif",
  "images/tooltip.png": "images/tooltip.2429.png",
  "images/tooltips-icon.png": "images/tooltips-icon.2429.png",
  "images/tree-spinner.gif": "images/tree-spinner.2429.gif",
  "images/tree_cache.png": "images/tree_cache.2429.png",
  "images/tree_file.png": "images/tree_file.2429.png",
  "images/tree_folder.png": "images/tree_folder.2429.png",
  "images/tree_repo.png": "images/tree_repo.2429.png",
  "images/tree_virtual.png": "images/tree_virtual.2429.png",
  "images/userguide.svg": "images/userguide.2429.svg",
  "images/view.png": "images/view.2429.png",
  "images/webinar.svg": "images/webinar.2429.svg",
  "css/fonts/artifactory.eot": "css/fonts/artifactory.2429.eot",
  "css/fonts/artifactory.svg": "css/fonts/artifactory.2429.svg",
  "css/fonts/artifactory.ttf": "css/fonts/artifactory.2429.ttf",
  "css/fonts/artifactory.woff": "css/fonts/artifactory.2429.woff",
  "css/fonts/artifactory.woff2": "css/fonts/artifactory.2429.woff2",
  "css/fonts/glyphicons-halflings-regular.eot": "css/fonts/glyphicons-halflings-regular.2429.eot",
  "css/fonts/glyphicons-halflings-regular.svg": "css/fonts/glyphicons-halflings-regular.2429.svg",
  "css/fonts/glyphicons-halflings-regular.ttf": "css/fonts/glyphicons-halflings-regular.2429.ttf",
  "css/fonts/glyphicons-halflings-regular.woff": "css/fonts/glyphicons-halflings-regular.2429.woff",
  "css/fonts/glyphicons-halflings-regular.woff2": "css/fonts/glyphicons-halflings-regular.2429.woff2",
  "css/fonts/ui-grid.eot": "css/fonts/ui-grid.2429.eot",
  "css/fonts/ui-grid.svg": "css/fonts/ui-grid.2429.svg",
  "css/fonts/ui-grid.ttf": "css/fonts/ui-grid.2429.ttf",
  "css/fonts/ui-grid.woff": "css/fonts/ui-grid.2429.woff",
  "css/images/32px.png": "css/images/32px.2429.png",
  "css/images/40px.png": "css/images/40px.2429.png",
  "css/images/actions.png": "css/images/actions.2429.png",
  "css/images/admin.png": "css/images/admin.2429.png",
  "css/images/animated-overlay.gif": "css/images/animated-overlay.2429.gif",
  "css/images/arrow_left.png": "css/images/arrow_left.2429.png",
  "css/images/arrow_right.png": "css/images/arrow_right.2429.png",
  "css/images/artifactory_logo.png": "css/images/artifactory_logo.2429.png",
  "css/images/artifactory_logo.svg": "css/images/artifactory_logo.2429.svg",
  "css/images/blackduck_logo.png": "css/images/blackduck_logo.2429.png",
  "css/images/build.png": "css/images/build.2429.png",
  "css/images/checkbox.png": "css/images/checkbox.2429.png",
  "css/images/checkbox_checked.png": "css/images/checkbox_checked.2429.png",
  "css/images/delete-recursive.png": "css/images/delete-recursive.2429.png",
  "css/images/delete.png": "css/images/delete.2429.png",
  "css/images/deploy.png": "css/images/deploy.2429.png",
  "css/images/download.png": "css/images/download.2429.png",
  "css/images/downloaded.png": "css/images/downloaded.2429.png",
  "css/images/favicon-old.ico": "css/images/favicon-old.2429.ico",
  "css/images/favicon.ico": "css/images/favicon.2429.ico",
  "css/images/file.png": "css/images/file.2429.png",
  "css/images/folder-closed.png": "css/images/folder-closed.2429.png",
  "css/images/folder.png": "css/images/folder.2429.png",
  "css/images/footer-icon.png": "css/images/footer-icon.2429.png",
  "css/images/grid-row-not-selected-hover.png": "css/images/grid-row-not-selected-hover.2429.png",
  "css/images/grid-row-not-selected.png": "css/images/grid-row-not-selected.2429.png",
  "css/images/grid-row-selected.png": "css/images/grid-row-selected.2429.png",
  "css/images/grid_checkbox.png": "css/images/grid_checkbox.2429.png",
  "css/images/home.png": "css/images/home.2429.png",
  "css/images/more-tabs-arrow.png": "css/images/more-tabs-arrow.2429.png",
  "css/images/node-closed-2.png": "css/images/node-closed-2.2429.png",
  "css/images/node-closed-light.png": "css/images/node-closed-light.2429.png",
  "css/images/node-closed.png": "css/images/node-closed.2429.png",
  "css/images/node-opened-2.png": "css/images/node-opened-2.2429.png",
  "css/images/node-opened-light.png": "css/images/node-opened-light.2429.png",
  "css/images/node-opened.png": "css/images/node-opened.2429.png",
  "css/images/radio.png": "css/images/radio.2429.png",
  "css/images/radio_checked.png": "css/images/radio_checked.2429.png",
  "css/images/radio_checked_disabled.png": "css/images/radio_checked_disabled.2429.png",
  "css/images/radio_disabled.png": "css/images/radio_disabled.2429.png",
  "css/images/radio_hover.png": "css/images/radio_hover.2429.png",
  "css/images/sample.png": "css/images/sample.2429.png",
  "css/images/search.png": "css/images/search.2429.png",
  "css/images/set-me-up.png": "css/images/set-me-up.2429.png",
  "css/images/throbber.gif": "css/images/throbber.2429.gif",
  "css/images/tooltip.png": "css/images/tooltip.2429.png",
  "css/images/tooltips-icon.png": "css/images/tooltips-icon.2429.png",
  "css/images/tree-spinner.gif": "css/images/tree-spinner.2429.gif",
  "css/images/tree_cache.png": "css/images/tree_cache.2429.png",
  "css/images/tree_file.png": "css/images/tree_file.2429.png",
  "css/images/tree_folder.png": "css/images/tree_folder.2429.png",
  "css/images/tree_repo.png": "css/images/tree_repo.2429.png",
  "css/images/tree_virtual.png": "css/images/tree_virtual.2429.png",
  "css/images/ui-bg_flat_0_aaaaaa_40x100.png": "css/images/ui-bg_flat_0_aaaaaa_40x100.2429.png",
  "css/images/ui-bg_flat_75_ffffff_40x100.png": "css/images/ui-bg_flat_75_ffffff_40x100.2429.png",
  "css/images/ui-bg_glass_55_fbf9ee_1x400.png": "css/images/ui-bg_glass_55_fbf9ee_1x400.2429.png",
  "css/images/ui-bg_glass_65_ffffff_1x400.png": "css/images/ui-bg_glass_65_ffffff_1x400.2429.png",
  "css/images/ui-bg_glass_75_dadada_1x400.png": "css/images/ui-bg_glass_75_dadada_1x400.2429.png",
  "css/images/ui-bg_glass_75_e6e6e6_1x400.png": "css/images/ui-bg_glass_75_e6e6e6_1x400.2429.png",
  "css/images/ui-bg_glass_95_fef1ec_1x400.png": "css/images/ui-bg_glass_95_fef1ec_1x400.2429.png",
  "css/images/ui-bg_highlight-soft_75_cccccc_1x100.png": "css/images/ui-bg_highlight-soft_75_cccccc_1x100.2429.png",
  "css/images/ui-icons_222222_256x240.png": "css/images/ui-icons_222222_256x240.2429.png",
  "css/images/ui-icons_2e83ff_256x240.png": "css/images/ui-icons_2e83ff_256x240.2429.png",
  "css/images/ui-icons_454545_256x240.png": "css/images/ui-icons_454545_256x240.2429.png",
  "css/images/ui-icons_888888_256x240.png": "css/images/ui-icons_888888_256x240.2429.png",
  "css/images/ui-icons_cd0a0a_256x240.png": "css/images/ui-icons_cd0a0a_256x240.2429.png",
  "css/images/view.png": "css/images/view.2429.png",
  "images/jqueryui/animated-overlay.gif": "images/jqueryui/animated-overlay.2429.gif",
  "images/jqueryui/ui-bg_flat_0_aaaaaa_40x100.png": "images/jqueryui/ui-bg_flat_0_aaaaaa_40x100.2429.png",
  "images/jqueryui/ui-bg_flat_75_ffffff_40x100.png": "images/jqueryui/ui-bg_flat_75_ffffff_40x100.2429.png",
  "images/jqueryui/ui-bg_glass_55_fbf9ee_1x400.png": "images/jqueryui/ui-bg_glass_55_fbf9ee_1x400.2429.png",
  "images/jqueryui/ui-bg_glass_65_ffffff_1x400.png": "images/jqueryui/ui-bg_glass_65_ffffff_1x400.2429.png",
  "images/jqueryui/ui-bg_glass_75_dadada_1x400.png": "images/jqueryui/ui-bg_glass_75_dadada_1x400.2429.png",
  "images/jqueryui/ui-bg_glass_75_e6e6e6_1x400.png": "images/jqueryui/ui-bg_glass_75_e6e6e6_1x400.2429.png",
  "images/jqueryui/ui-bg_glass_95_fef1ec_1x400.png": "images/jqueryui/ui-bg_glass_95_fef1ec_1x400.2429.png",
  "images/jqueryui/ui-bg_highlight-soft_75_cccccc_1x100.png": "images/jqueryui/ui-bg_highlight-soft_75_cccccc_1x100.2429.png",
  "images/jqueryui/ui-icons_222222_256x240.png": "images/jqueryui/ui-icons_222222_256x240.2429.png",
  "images/jqueryui/ui-icons_2e83ff_256x240.png": "images/jqueryui/ui-icons_2e83ff_256x240.2429.png",
  "images/jqueryui/ui-icons_454545_256x240.png": "images/jqueryui/ui-icons_454545_256x240.2429.png",
  "images/jqueryui/ui-icons_888888_256x240.png": "images/jqueryui/ui-icons_888888_256x240.2429.png",
  "images/jqueryui/ui-icons_cd0a0a_256x240.png": "images/jqueryui/ui-icons_cd0a0a_256x240.2429.png",
  "images/wizard-icons/icon_1_break_gif.gif": "images/wizard-icons/icon_1_break_gif.2429.gif",
  "images/wizard-icons/icon_1_break_gif@2.gif": "images/wizard-icons/icon_1_break_gif@2.2429.gif",
  "images/wizard-icons/icon_1_break_gif@3.gif": "images/wizard-icons/icon_1_break_gif@3.2429.gif",
  "images/wizard-icons/icon_1_build_gif.gif": "images/wizard-icons/icon_1_build_gif.2429.gif",
  "images/wizard-icons/icon_1_build_gif@2.gif": "images/wizard-icons/icon_1_build_gif@2.2429.gif",
  "images/wizard-icons/icon_1_build_gif@3.gif": "images/wizard-icons/icon_1_build_gif@3.2429.gif",
  "images/wizard-icons/icon_1_idle_gif.gif": "images/wizard-icons/icon_1_idle_gif.2429.gif",
  "images/wizard-icons/icon_1_idle_gif@2.gif": "images/wizard-icons/icon_1_idle_gif@2.2429.gif",
  "images/wizard-icons/icon_1_idle_gif@3.gif": "images/wizard-icons/icon_1_idle_gif@3.2429.gif",
  "images/wizard-icons/icon_2_break_gif.gif": "images/wizard-icons/icon_2_break_gif.2429.gif",
  "images/wizard-icons/icon_2_break_gif@2.gif": "images/wizard-icons/icon_2_break_gif@2.2429.gif",
  "images/wizard-icons/icon_2_break_gif@3.gif": "images/wizard-icons/icon_2_break_gif@3.2429.gif",
  "images/wizard-icons/icon_2_build_gif.gif": "images/wizard-icons/icon_2_build_gif.2429.gif",
  "images/wizard-icons/icon_2_build_gif@2.gif": "images/wizard-icons/icon_2_build_gif@2.2429.gif",
  "images/wizard-icons/icon_2_build_gif@3.gif": "images/wizard-icons/icon_2_build_gif@3.2429.gif",
  "images/wizard-icons/icon_2_idle_gif.gif": "images/wizard-icons/icon_2_idle_gif.2429.gif",
  "images/wizard-icons/icon_2_idle_gif@2.gif": "images/wizard-icons/icon_2_idle_gif@2.2429.gif",
  "images/wizard-icons/icon_2_idle_gif@3.gif": "images/wizard-icons/icon_2_idle_gif@3.2429.gif",
  "images/wizard-icons/icon_3_break_gif.gif": "images/wizard-icons/icon_3_break_gif.2429.gif",
  "images/wizard-icons/icon_3_break_gif@2.gif": "images/wizard-icons/icon_3_break_gif@2.2429.gif",
  "images/wizard-icons/icon_3_break_gif@3.gif": "images/wizard-icons/icon_3_break_gif@3.2429.gif",
  "images/wizard-icons/icon_3_build_gif.gif": "images/wizard-icons/icon_3_build_gif.2429.gif",
  "images/wizard-icons/icon_3_build_gif@2.gif": "images/wizard-icons/icon_3_build_gif@2.2429.gif",
  "images/wizard-icons/icon_3_build_gif@3.gif": "images/wizard-icons/icon_3_build_gif@3.2429.gif",
  "images/wizard-icons/icon_3_idle_gif.gif": "images/wizard-icons/icon_3_idle_gif.2429.gif",
  "images/wizard-icons/icon_3_idle_gif@2.gif": "images/wizard-icons/icon_3_idle_gif@2.2429.gif",
  "images/wizard-icons/icon_3_idle_gif@3.gif": "images/wizard-icons/icon_3_idle_gif@3.2429.gif",
  "images/wizard-icons/icon_4_break_gif.gif": "images/wizard-icons/icon_4_break_gif.2429.gif",
  "images/wizard-icons/icon_4_break_gif@2.gif": "images/wizard-icons/icon_4_break_gif@2.2429.gif",
  "images/wizard-icons/icon_4_break_gif@3.gif": "images/wizard-icons/icon_4_break_gif@3.2429.gif",
  "images/wizard-icons/icon_4_build_gif.gif": "images/wizard-icons/icon_4_build_gif.2429.gif",
  "images/wizard-icons/icon_4_build_gif@2.gif": "images/wizard-icons/icon_4_build_gif@2.2429.gif",
  "images/wizard-icons/icon_4_build_gif@3.gif": "images/wizard-icons/icon_4_build_gif@3.2429.gif",
  "images/wizard-icons/icon_4_idle_gif.gif": "images/wizard-icons/icon_4_idle_gif.2429.gif",
  "images/wizard-icons/icon_4_idle_gif@2.gif": "images/wizard-icons/icon_4_idle_gif@2.2429.gif",
  "images/wizard-icons/icon_4_idle_gif@3.gif": "images/wizard-icons/icon_4_idle_gif@3.2429.gif",
  "images/wizard-icons/icon_5_break_gif.gif": "images/wizard-icons/icon_5_break_gif.2429.gif",
  "images/wizard-icons/icon_5_break_gif@2.gif": "images/wizard-icons/icon_5_break_gif@2.2429.gif",
  "images/wizard-icons/icon_5_break_gif@3.gif": "images/wizard-icons/icon_5_break_gif@3.2429.gif",
  "images/wizard-icons/icon_5_build_gif.gif": "images/wizard-icons/icon_5_build_gif.2429.gif",
  "images/wizard-icons/icon_5_build_gif@2.gif": "images/wizard-icons/icon_5_build_gif@2.2429.gif",
  "images/wizard-icons/icon_5_build_gif@3.gif": "images/wizard-icons/icon_5_build_gif@3.2429.gif",
  "images/wizard-icons/icon_5_idle_gif.gif": "images/wizard-icons/icon_5_idle_gif.2429.gif",
  "images/wizard-icons/icon_5_idle_gif@2.gif": "images/wizard-icons/icon_5_idle_gif@2.2429.gif",
  "images/wizard-icons/icon_5_idle_gif@3.gif": "images/wizard-icons/icon_5_idle_gif@3.2429.gif",
  "css/fonts/OpenSans/opensans-bold-webfont.svg": "css/fonts/OpenSans/opensans-bold-webfont.2429.svg",
  "css/fonts/OpenSans/opensans-bold-webfont.ttf": "css/fonts/OpenSans/opensans-bold-webfont.2429.ttf",
  "css/fonts/OpenSans/opensans-bold-webfont.woff": "css/fonts/OpenSans/opensans-bold-webfont.2429.woff",
  "css/fonts/OpenSans/opensans-bold-webfont.woff2": "css/fonts/OpenSans/opensans-bold-webfont.2429.woff2",
  "css/fonts/OpenSans/opensans-light-webfont.svg": "css/fonts/OpenSans/opensans-light-webfont.2429.svg",
  "css/fonts/OpenSans/opensans-light-webfont.ttf": "css/fonts/OpenSans/opensans-light-webfont.2429.ttf",
  "css/fonts/OpenSans/opensans-light-webfont.woff": "css/fonts/OpenSans/opensans-light-webfont.2429.woff",
  "css/fonts/OpenSans/opensans-light-webfont.woff2": "css/fonts/OpenSans/opensans-light-webfont.2429.woff2",
  "css/fonts/OpenSans/opensans-regular-webfont.svg": "css/fonts/OpenSans/opensans-regular-webfont.2429.svg",
  "css/fonts/OpenSans/opensans-regular-webfont.ttf": "css/fonts/OpenSans/opensans-regular-webfont.2429.ttf",
  "css/fonts/OpenSans/opensans-regular-webfont.woff": "css/fonts/OpenSans/opensans-regular-webfont.2429.woff",
  "css/fonts/OpenSans/opensans-regular-webfont.woff2": "css/fonts/OpenSans/opensans-regular-webfont.2429.woff2",
  "css/fonts/OpenSans/opensans-semibold-webfont.svg": "css/fonts/OpenSans/opensans-semibold-webfont.2429.svg",
  "css/fonts/OpenSans/opensans-semibold-webfont.ttf": "css/fonts/OpenSans/opensans-semibold-webfont.2429.ttf",
  "css/fonts/OpenSans/opensans-semibold-webfont.woff": "css/fonts/OpenSans/opensans-semibold-webfont.2429.woff",
  "css/fonts/OpenSans/opensans-semibold-webfont.woff2": "css/fonts/OpenSans/opensans-semibold-webfont.2429.woff2",
  "fonts/OpenSans/OpenSans-Bold/OpenSans-Bold-webfont.eot": "fonts/OpenSans/OpenSans-Bold/OpenSans-Bold-webfont.2429.eot",
  "fonts/OpenSans/OpenSans-Bold/OpenSans-Bold-webfont.svg": "fonts/OpenSans/OpenSans-Bold/OpenSans-Bold-webfont.2429.svg",
  "fonts/OpenSans/OpenSans-Bold/OpenSans-Bold-webfont.ttf": "fonts/OpenSans/OpenSans-Bold/OpenSans-Bold-webfont.2429.ttf",
  "fonts/OpenSans/OpenSans-Bold/OpenSans-Bold-webfont.woff": "fonts/OpenSans/OpenSans-Bold/OpenSans-Bold-webfont.2429.woff",
  "fonts/OpenSans/OpenSans-BoldItalic/OpenSans-BoldItalic-webfont.eot": "fonts/OpenSans/OpenSans-BoldItalic/OpenSans-BoldItalic-webfont.2429.eot",
  "fonts/OpenSans/OpenSans-BoldItalic/OpenSans-BoldItalic-webfont.svg": "fonts/OpenSans/OpenSans-BoldItalic/OpenSans-BoldItalic-webfont.2429.svg",
  "fonts/OpenSans/OpenSans-BoldItalic/OpenSans-BoldItalic-webfont.ttf": "fonts/OpenSans/OpenSans-BoldItalic/OpenSans-BoldItalic-webfont.2429.ttf",
  "fonts/OpenSans/OpenSans-BoldItalic/OpenSans-BoldItalic-webfont.woff": "fonts/OpenSans/OpenSans-BoldItalic/OpenSans-BoldItalic-webfont.2429.woff",
  "fonts/OpenSans/OpenSans-ExtraBold/OpenSans-ExtraBold-webfont.eot": "fonts/OpenSans/OpenSans-ExtraBold/OpenSans-ExtraBold-webfont.2429.eot",
  "fonts/OpenSans/OpenSans-ExtraBold/OpenSans-ExtraBold-webfont.svg": "fonts/OpenSans/OpenSans-ExtraBold/OpenSans-ExtraBold-webfont.2429.svg",
  "fonts/OpenSans/OpenSans-ExtraBold/OpenSans-ExtraBold-webfont.ttf": "fonts/OpenSans/OpenSans-ExtraBold/OpenSans-ExtraBold-webfont.2429.ttf",
  "fonts/OpenSans/OpenSans-ExtraBold/OpenSans-ExtraBold-webfont.woff": "fonts/OpenSans/OpenSans-ExtraBold/OpenSans-ExtraBold-webfont.2429.woff",
  "fonts/OpenSans/OpenSans-ExtraBoldItalic/OpenSans-ExtraBoldItalic-webfont.eot": "fonts/OpenSans/OpenSans-ExtraBoldItalic/OpenSans-ExtraBoldItalic-webfont.2429.eot",
  "fonts/OpenSans/OpenSans-ExtraBoldItalic/OpenSans-ExtraBoldItalic-webfont.svg": "fonts/OpenSans/OpenSans-ExtraBoldItalic/OpenSans-ExtraBoldItalic-webfont.2429.svg",
  "fonts/OpenSans/OpenSans-ExtraBoldItalic/OpenSans-ExtraBoldItalic-webfont.ttf": "fonts/OpenSans/OpenSans-ExtraBoldItalic/OpenSans-ExtraBoldItalic-webfont.2429.ttf",
  "fonts/OpenSans/OpenSans-ExtraBoldItalic/OpenSans-ExtraBoldItalic-webfont.woff": "fonts/OpenSans/OpenSans-ExtraBoldItalic/OpenSans-ExtraBoldItalic-webfont.2429.woff",
  "fonts/OpenSans/OpenSans-Italic/OpenSans-Italic-webfont.eot": "fonts/OpenSans/OpenSans-Italic/OpenSans-Italic-webfont.2429.eot",
  "fonts/OpenSans/OpenSans-Italic/OpenSans-Italic-webfont.svg": "fonts/OpenSans/OpenSans-Italic/OpenSans-Italic-webfont.2429.svg",
  "fonts/OpenSans/OpenSans-Italic/OpenSans-Italic-webfont.ttf": "fonts/OpenSans/OpenSans-Italic/OpenSans-Italic-webfont.2429.ttf",
  "fonts/OpenSans/OpenSans-Italic/OpenSans-Italic-webfont.woff": "fonts/OpenSans/OpenSans-Italic/OpenSans-Italic-webfont.2429.woff",
  "fonts/OpenSans/OpenSans-Light/OpenSans-Light-webfont.eot": "fonts/OpenSans/OpenSans-Light/OpenSans-Light-webfont.2429.eot",
  "fonts/OpenSans/OpenSans-Light/OpenSans-Light-webfont.svg": "fonts/OpenSans/OpenSans-Light/OpenSans-Light-webfont.2429.svg",
  "fonts/OpenSans/OpenSans-Light/OpenSans-Light-webfont.ttf": "fonts/OpenSans/OpenSans-Light/OpenSans-Light-webfont.2429.ttf",
  "fonts/OpenSans/OpenSans-Light/OpenSans-Light-webfont.woff": "fonts/OpenSans/OpenSans-Light/OpenSans-Light-webfont.2429.woff",
  "fonts/OpenSans/OpenSans-LightItalic/OpenSans-LightItalic-webfont.eot": "fonts/OpenSans/OpenSans-LightItalic/OpenSans-LightItalic-webfont.2429.eot",
  "fonts/OpenSans/OpenSans-LightItalic/OpenSans-LightItalic-webfont.svg": "fonts/OpenSans/OpenSans-LightItalic/OpenSans-LightItalic-webfont.2429.svg",
  "fonts/OpenSans/OpenSans-LightItalic/OpenSans-LightItalic-webfont.ttf": "fonts/OpenSans/OpenSans-LightItalic/OpenSans-LightItalic-webfont.2429.ttf",
  "fonts/OpenSans/OpenSans-LightItalic/OpenSans-LightItalic-webfont.woff": "fonts/OpenSans/OpenSans-LightItalic/OpenSans-LightItalic-webfont.2429.woff",
  "fonts/OpenSans/OpenSans-Regular/OpenSans-Regular-webfont.eot": "fonts/OpenSans/OpenSans-Regular/OpenSans-Regular-webfont.2429.eot",
  "fonts/OpenSans/OpenSans-Regular/OpenSans-Regular-webfont.svg": "fonts/OpenSans/OpenSans-Regular/OpenSans-Regular-webfont.2429.svg",
  "fonts/OpenSans/OpenSans-Regular/OpenSans-Regular-webfont.ttf": "fonts/OpenSans/OpenSans-Regular/OpenSans-Regular-webfont.2429.ttf",
  "fonts/OpenSans/OpenSans-Regular/OpenSans-Regular-webfont.woff": "fonts/OpenSans/OpenSans-Regular/OpenSans-Regular-webfont.2429.woff",
  "fonts/OpenSans/OpenSans-Semibold/OpenSans-Semibold-webfont.eot": "fonts/OpenSans/OpenSans-Semibold/OpenSans-Semibold-webfont.2429.eot",
  "fonts/OpenSans/OpenSans-Semibold/OpenSans-Semibold-webfont.svg": "fonts/OpenSans/OpenSans-Semibold/OpenSans-Semibold-webfont.2429.svg",
  "fonts/OpenSans/OpenSans-Semibold/OpenSans-Semibold-webfont.ttf": "fonts/OpenSans/OpenSans-Semibold/OpenSans-Semibold-webfont.2429.ttf",
  "fonts/OpenSans/OpenSans-Semibold/OpenSans-Semibold-webfont.woff": "fonts/OpenSans/OpenSans-Semibold/OpenSans-Semibold-webfont.2429.woff",
  "fonts/OpenSans/OpenSans-SemiboldItalic/OpenSans-SemiboldItalic-webfont.eot": "fonts/OpenSans/OpenSans-SemiboldItalic/OpenSans-SemiboldItalic-webfont.2429.eot",
  "fonts/OpenSans/OpenSans-SemiboldItalic/OpenSans-SemiboldItalic-webfont.svg": "fonts/OpenSans/OpenSans-SemiboldItalic/OpenSans-SemiboldItalic-webfont.2429.svg",
  "fonts/OpenSans/OpenSans-SemiboldItalic/OpenSans-SemiboldItalic-webfont.ttf": "fonts/OpenSans/OpenSans-SemiboldItalic/OpenSans-SemiboldItalic-webfont.2429.ttf",
  "fonts/OpenSans/OpenSans-SemiboldItalic/OpenSans-SemiboldItalic-webfont.woff": "fonts/OpenSans/OpenSans-SemiboldItalic/OpenSans-SemiboldItalic-webfont.2429.woff",
  "css/images/jqueryui/animated-overlay.gif": "css/images/jqueryui/animated-overlay.2429.gif",
  "css/images/jqueryui/ui-bg_flat_0_aaaaaa_40x100.png": "css/images/jqueryui/ui-bg_flat_0_aaaaaa_40x100.2429.png",
  "css/images/jqueryui/ui-bg_flat_75_ffffff_40x100.png": "css/images/jqueryui/ui-bg_flat_75_ffffff_40x100.2429.png",
  "css/images/jqueryui/ui-bg_glass_55_fbf9ee_1x400.png": "css/images/jqueryui/ui-bg_glass_55_fbf9ee_1x400.2429.png",
  "css/images/jqueryui/ui-bg_glass_65_ffffff_1x400.png": "css/images/jqueryui/ui-bg_glass_65_ffffff_1x400.2429.png",
  "css/images/jqueryui/ui-bg_glass_75_dadada_1x400.png": "css/images/jqueryui/ui-bg_glass_75_dadada_1x400.2429.png",
  "css/images/jqueryui/ui-bg_glass_75_e6e6e6_1x400.png": "css/images/jqueryui/ui-bg_glass_75_e6e6e6_1x400.2429.png",
  "css/images/jqueryui/ui-bg_glass_95_fef1ec_1x400.png": "css/images/jqueryui/ui-bg_glass_95_fef1ec_1x400.2429.png",
  "css/images/jqueryui/ui-bg_highlight-soft_75_cccccc_1x100.png": "css/images/jqueryui/ui-bg_highlight-soft_75_cccccc_1x100.2429.png",
  "css/images/jqueryui/ui-icons_222222_256x240.png": "css/images/jqueryui/ui-icons_222222_256x240.2429.png",
  "css/images/jqueryui/ui-icons_2e83ff_256x240.png": "css/images/jqueryui/ui-icons_2e83ff_256x240.2429.png",
  "css/images/jqueryui/ui-icons_454545_256x240.png": "css/images/jqueryui/ui-icons_454545_256x240.2429.png",
  "css/images/jqueryui/ui-icons_888888_256x240.png": "css/images/jqueryui/ui-icons_888888_256x240.2429.png",
  "css/images/jqueryui/ui-icons_cd0a0a_256x240.png": "css/images/jqueryui/ui-icons_cd0a0a_256x240.2429.png"
}